%YAML 1.1
%TAG !u! tag:unity3d.com,2011:
--- !u!21 &2100000
Material:
  serializedVersion: 6
  m_ObjectHideFlags: 0
  m_CorrespondingSourceObject: {fileID: 0}
  m_PrefabInstance: {fileID: 0}
  m_PrefabAsset: {fileID: 0}
  m_Name: channelPackageTest
  m_Shader: {fileID: -6465566751694194690, guid: 815d8d6fccea58e47ba198863a00ddd5, type: 3}
  m_ShaderKeywords: 
  m_LightmapFlags: 4
  m_EnableInstancingVariants: 0
  m_DoubleSidedGI: 0
  m_CustomRenderQueue: -1
  stringTagMap: {}
  disabledShaderPasses: []
  m_SavedProperties:
    serializedVersion: 3
    m_TexEnvs:
    - Texture2D_5DC110CE:
        m_Texture: {fileID: 2800000, guid: 6a5e39d5dcf89014e862225b9c33d06c, type: 3}
        m_Scale: {x: 1, y: 1}
        m_Offset: {x: 0, y: 0}
    m_Floats:
    - Vector1_9F52C021: 0
    - Vector1_EFA18F88: 0
    m_Colors:
    - Color_187BCBAD: {r: 0, g: 0, b: 0, a: 0}
    - Color_3E210AB5: {r: 0.057042465, g: 0.417, b: 0.375874, a: 0}
    - Color_82CCE0A2: {r: 0, g: 0.78699994, b: 0.46867123, a: 0}
    - Vector2_2635C353: {r: 5, g: 5, b: 0, a: 0}
    - _Tint: {r: 0, g: 1, b: 0, a: 0}
  m_BuildTextureStacks: []
