%YAML 1.1
%TAG !u! tag:unity3d.com,2011:
--- !u!21 &2100000
Material:
  serializedVersion: 6
  m_ObjectHideFlags: 0
  m_CorrespondingSourceObject: {fileID: 0}
  m_PrefabInstance: {fileID: 0}
  m_PrefabAsset: {fileID: 0}
  m_Name: Torreta_Mat
  m_Shader: {fileID: -6465566751694194690, guid: 36398b4b01448cb4da149d604166a2fc, type: 3}
  m_ShaderKeywords: 
  m_LightmapFlags: 4
  m_EnableInstancingVariants: 0
  m_DoubleSidedGI: 0
  m_CustomRenderQueue: -1
  stringTagMap: {}
  disabledShaderPasses: []
  m_SavedProperties:
    serializedVersion: 3
    m_TexEnvs:
    - Texture2D_C2B945A5:
        m_Texture: {fileID: 2800000, guid: 6ff4902b5e7cadc448da19fba58105a0, type: 3}
        m_Scale: {x: 1, y: 1}
        m_Offset: {x: 0, y: 0}
    - Texture2D_E2BF60D8:
        m_Texture: {fileID: 2800000, guid: e5cd97586d351874da630b5cc596dcd3, type: 3}
        m_Scale: {x: 1, y: 1}
        m_Offset: {x: 0, y: 0}
    - _SampleTexture2D_3F1FFEC4_Texture_1:
        m_Texture: {fileID: 2800000, guid: ce9f6736014bc1a43a337f90fa61c4a2, type: 3}
        m_Scale: {x: 1, y: 1}
        m_Offset: {x: 0, y: 0}
    - _SampleTexture2D_819F7EC1_Texture_1:
        m_Texture: {fileID: 2800000, guid: ce2ead1bc6448b54a885ea66421b17df, type: 3}
        m_Scale: {x: 1, y: 1}
        m_Offset: {x: 0, y: 0}
    - _SampleTexture2D_C9CDB217_Texture_1:
        m_Texture: {fileID: 2800000, guid: df1ac60a6b3d7f64e978f7167a890de9, type: 3}
        m_Scale: {x: 1, y: 1}
        m_Offset: {x: 0, y: 0}
    m_Floats:
    - LED_1_Glow: 0
    - LED_2_Glow: 0
    - LED_3_Glow: 0
    - LED_4_Glow: 0
    - LED_5_Glow: 0
    - LED_6_Glow: 0
    - LED_7_Glow: 0
    - LED_8_Glow: 0
    - Vector1_3255CDFA: 0
    - Vector1_4FB02E00: 0
    - Vector1_B8062F9D: 0
    - Vector1_BBB473C5: 0
    - Vector1_C8CB0C3C: 0
    - Vector1_CFEF38AB: 1
    - Vector1_D4A6890B: 0
    - Vector1_D9F1A621: 0
    - Vector1_EE05D7AB: 0
    m_Colors:
    - Color_BB39B6A3: {r: 1, g: 0, b: 0, a: 0}
  m_BuildTextureStacks: []
