%YAML 1.1
%TAG !u! tag:unity3d.com,2011:
--- !u!47 &1
QualitySettings:
  m_ObjectHideFlags: 0
  serializedVersion: 5
  m_CurrentQuality: 2
  m_QualitySettings:
  - serializedVersion: 2
    name: Low
    pixelLightCount: 0
    shadows: 0
    shadowResolution: 0
    shadowProjection: 1
    shadowCascades: 1
    shadowDistance: 15
    shadowNearPlaneOffset: 3
    shadowCascade2Split: 0.33333334
    shadowCascade4Split: {x: 0.06666667, y: 0.2, z: 0.46666667}
    shadowmaskMode: 0
    skinWeights: 1
    textureQuality: 1
    anisotropicTextures: 0
    antiAliasing: 0
    softParticles: 0
    softVegetation: 0
    realtimeReflectionProbes: 0
    billboardsFaceCameraPosition: 0
    vSyncCount: 0
    lodBias: 0.3
    maximumLODLevel: 0
    streamingMipmapsActive: 0
    streamingMipmapsAddAllCameras: 1
    streamingMipmapsMemoryBudget: 512
    streamingMipmapsRenderersPerFrame: 512
    streamingMipmapsMaxLevelReduction: 2
    streamingMipmapsMaxFileIORequests: 1024
    particleRaycastBudget: 4
    asyncUploadTimeSlice: 2
    asyncUploadBufferSize: 16
    asyncUploadPersistentBuffer: 1
    resolutionScalingFixedDPIFactor: 1
    customRenderPipeline: {fileID: 11400000, guid: 03b59250103a6964cb26a2b7cebb6993, type: 2}
    excludedTargetPlatforms: []
  - serializedVersion: 2
    name: Medium
    pixelLightCount: 1
    shadows: 1
    shadowResolution: 0
    shadowProjection: 1
    shadowCascades: 1
    shadowDistance: 20
    shadowNearPlaneOffset: 3
    shadowCascade2Split: 0.33333334
    shadowCascade4Split: {x: 0.06666667, y: 0.2, z: 0.46666667}
    shadowmaskMode: 0
    skinWeights: 2
    textureQuality: 0
    anisotropicTextures: 1
    antiAliasing: 4
    softParticles: 0
    softVegetation: 0
    realtimeReflectionProbes: 0
    billboardsFaceCameraPosition: 0
    vSyncCount: 1
    lodBias: 0.7
    maximumLODLevel: 0
    streamingMipmapsActive: 0
    streamingMipmapsAddAllCameras: 1
    streamingMipmapsMemoryBudget: 512
    streamingMipmapsRenderersPerFrame: 512
    streamingMipmapsMaxLevelReduction: 2
    streamingMipmapsMaxFileIORequests: 1024
    particleRaycastBudget: 64
    asyncUploadTimeSlice: 2
    asyncUploadBufferSize: 16
    asyncUploadPersistentBuffer: 1
    resolutionScalingFixedDPIFactor: 1
    customRenderPipeline: {fileID: 11400000, guid: 232ac6545507d0e48acca615207c8f95, type: 2}
    excludedTargetPlatforms: []
  - serializedVersion: 2
    name: High
    pixelLightCount: 4
    shadows: 2
    shadowResolution: 2
    shadowProjection: 1
    shadowCascades: 4
    shadowDistance: 150
    shadowNearPlaneOffset: 3
    shadowCascade2Split: 0.33333334
    shadowCascade4Split: {x: 0.06666667, y: 0.2, z: 0.46666667}
    shadowmaskMode: 1
    skinWeights: 4
    textureQuality: 0
    anisotropicTextures: 2
    antiAliasing: 8
    softParticles: 1
    softVegetation: 1
    realtimeReflectionProbes: 1
    billboardsFaceCameraPosition: 1
    vSyncCount: 1
    lodBias: 2
    maximumLODLevel: 0
    streamingMipmapsActive: 0
    streamingMipmapsAddAllCameras: 1
    streamingMipmapsMemoryBudget: 512
    streamingMipmapsRenderersPerFrame: 512
    streamingMipmapsMaxLevelReduction: 2
    streamingMipmapsMaxFileIORequests: 1024
    particleRaycastBudget: 4096
    asyncUploadTimeSlice: 2
    asyncUploadBufferSize: 16
    asyncUploadPersistentBuffer: 1
    resolutionScalingFixedDPIFactor: 1
    customRenderPipeline: {fileID: 11400000, guid: 1e500ad49aecbf649b0ed8d84382423c, type: 2}
    excludedTargetPlatforms: []
  m_PerPlatformDefaultQuality:
    Android: 1
    Lumin: 2
    Nintendo 3DS: 2
    Nintendo Switch: 2
    PS4: 2
    PSP2: 1
    Stadia: 2
    Standalone: 2
    WebGL: 1
    Windows Store Apps: 2
    XboxOne: 2
    iPhone: 1
    tvOS: 1
