%YAML 1.1
%TAG !u! tag:unity3d.com,2011:
--- !u!21 &2100000
Material:
  serializedVersion: 6
  m_ObjectHideFlags: 0
  m_CorrespondingSourceObject: {fileID: 0}
  m_PrefabInstance: {fileID: 0}
  m_PrefabAsset: {fileID: 0}
  m_Name: sheen_Mat
  m_Shader: {fileID: 4800000, guid: afcb4e77797a93f4b9b28c4c9bfae89e, type: 3}
  m_ShaderKeywords: 
  m_LightmapFlags: 4
  m_EnableInstancingVariants: 0
  m_DoubleSidedGI: 0
  m_CustomRenderQueue: -1
  stringTagMap: {}
  disabledShaderPasses: []
  m_SavedProperties:
    serializedVersion: 3
    m_TexEnvs:
    - _MainTex:
        m_Texture: {fileID: 2800000, guid: cadafe6cd930df346b3eaa4c5ff3ccdf, type: 3}
        m_Scale: {x: 0.5, y: 0.5}
        m_Offset: {x: 0, y: 0}
    m_Floats:
    - _Cols: 1
    - _Rows: 1
    m_Colors: []
  m_BuildTextureStacks: []
