%YAML 1.1
%TAG !u! tag:unity3d.com,2011:
--- !u!65 &1295600935148324192
BoxCollider:
  m_ObjectHideFlags: 0
  m_CorrespondingSourceObject: {fileID: 0}
  m_PrefabInstance: {fileID: 0}
  m_PrefabAsset: {fileID: 0}
  m_GameObject: {fileID: 7972554615937621486}
  m_Material: {fileID: 0}
  m_IsTrigger: 0
  m_Enabled: 1
  serializedVersion: 2
  m_Size: {x: 0.2663803, y: 3.730132, z: 10.0000305}
  m_Center: {x: -4.866769, y: 2.878939, z: 5.0294113}
--- !u!1001 &1993785724634824444
PrefabInstance:
  m_ObjectHideFlags: 0
  serializedVersion: 2
  m_Modification:
    m_TransformParent: {fileID: 0}
    m_Modifications:
    - target: {fileID: 3875636464985007588, guid: 5e50ab3870d05514798a0c6e1f209107, type: 3}
      propertyPath: m_LocalPosition.x
      value: 0
      objectReference: {fileID: 0}
    - target: {fileID: 3875636464985007588, guid: 5e50ab3870d05514798a0c6e1f209107, type: 3}
      propertyPath: m_LocalPosition.y
      value: 0
      objectReference: {fileID: 0}
    - target: {fileID: 3875636464985007588, guid: 5e50ab3870d05514798a0c6e1f209107, type: 3}
      propertyPath: m_LocalPosition.z
      value: 0
      objectReference: {fileID: 0}
    - target: {fileID: 3875636464985007588, guid: 5e50ab3870d05514798a0c6e1f209107, type: 3}
      propertyPath: m_LocalRotation.x
      value: 0
      objectReference: {fileID: 0}
    - target: {fileID: 3875636464985007588, guid: 5e50ab3870d05514798a0c6e1f209107, type: 3}
      propertyPath: m_LocalRotation.y
      value: 0
      objectReference: {fileID: 0}
    - target: {fileID: 3875636464985007588, guid: 5e50ab3870d05514798a0c6e1f209107, type: 3}
      propertyPath: m_LocalRotation.z
      value: 0
      objectReference: {fileID: 0}
    - target: {fileID: 3875636464985007588, guid: 5e50ab3870d05514798a0c6e1f209107, type: 3}
      propertyPath: m_LocalRotation.w
      value: 1
      objectReference: {fileID: 0}
    - target: {fileID: 3875636464985007588, guid: 5e50ab3870d05514798a0c6e1f209107, type: 3}
      propertyPath: m_RootOrder
      value: 0
      objectReference: {fileID: 0}
    - target: {fileID: 3875636464985007588, guid: 5e50ab3870d05514798a0c6e1f209107, type: 3}
      propertyPath: m_LocalEulerAnglesHint.x
      value: 0
      objectReference: {fileID: 0}
    - target: {fileID: 3875636464985007588, guid: 5e50ab3870d05514798a0c6e1f209107, type: 3}
      propertyPath: m_LocalEulerAnglesHint.y
      value: 0
      objectReference: {fileID: 0}
    - target: {fileID: 3875636464985007588, guid: 5e50ab3870d05514798a0c6e1f209107, type: 3}
      propertyPath: m_LocalEulerAnglesHint.z
      value: 0
      objectReference: {fileID: 0}
    - target: {fileID: 5033773827217859105, guid: 5e50ab3870d05514798a0c6e1f209107, type: 3}
      propertyPath: m_Size.x
      value: 0.2663803
      objectReference: {fileID: 0}
    - target: {fileID: 5033773827217859105, guid: 5e50ab3870d05514798a0c6e1f209107, type: 3}
      propertyPath: m_Size.y
      value: 3.730132
      objectReference: {fileID: 0}
    - target: {fileID: 5033773827217859105, guid: 5e50ab3870d05514798a0c6e1f209107, type: 3}
      propertyPath: m_Center.y
      value: -2.8789387
      objectReference: {fileID: 0}
    - target: {fileID: 5033773827217859105, guid: 5e50ab3870d05514798a0c6e1f209107, type: 3}
      propertyPath: m_Center.z
      value: 5.0294113
      objectReference: {fileID: 0}
    - target: {fileID: 8435081175416349458, guid: 5e50ab3870d05514798a0c6e1f209107, type: 3}
      propertyPath: m_Name
      value: 4_Door_cols Variant Variant
      objectReference: {fileID: 0}
    m_RemovedComponents: []
  m_SourcePrefab: {fileID: 100100000, guid: 5e50ab3870d05514798a0c6e1f209107, type: 3}
--- !u!1 &7972554615937621486 stripped
GameObject:
  m_CorrespondingSourceObject: {fileID: 8435081175416349458, guid: 5e50ab3870d05514798a0c6e1f209107, type: 3}
  m_PrefabInstance: {fileID: 1993785724634824444}
  m_PrefabAsset: {fileID: 0}
